{
  "images" : [
    {
      "idiom" : "universal",
      "scale" : "1x"
    },
    {
      "idiom" : "universal",
      "filename" : "6525294-A-set-of-U-S-coins-isolated-on-white-The-coins-are-not-to-scale-because-I-wanted-to-provide-designer-Stock-Photo.jpg",
      "scale" : "2x"
    },
    {
      "idiom" : "universal",
      "scale" : "3x"
    }
  ],
  "info" : {
    "version" : 1,
    "author" : "xcode"
  }
}